﻿1. Мескон М., Альберт М., Хедоури Ф. Основы менеджмента (Management). - М.: Дело, 1992. - 702 с./2004.-
2. Подвойский Г.Л. Управление - это наука и искусство: А.Файоль, Г.Эмерсон, Ф.Тэйлор, Г.Форд. - М.:Республика, 1992. - 351 с.
3. Клейнер С. Ключевые идеи менеджмента. -М.: ИНФРА-М, 2002. - 347 с.
4. Шим Дж.К., Сигал Дж.Г. Финансовый менеджмент. - М.: Инф.-изд. дом "Филинъ", 1996. - 400 с.
5. Дойль П.Менеджмент:стратегия и тактика. - СПб: Питер, 1999. - 560 с.
6. Принципы менеджмента (из интернета)
7.
8.
9.
10. Приказ № 31
11. Приказ № 235
13. Приказ № 239
